
	[THREADS LOG]

02:39:36 Thread#1: starts processing...
02:39:36 Thread#1: running with mode 1...
02:39:36 Thread#1: current list size is 100
02:39:36 Thread#1: captured node with data 53.606822
02:39:36 Thread#1: node processed, current list size is 100
02:39:36 Thread#1: captured node with data 63.826357
02:39:36 Thread#1: node processed, current list size is 99
02:39:36 Thread#1: captured node with data 53.847586
02:39:36 Thread#1: node processed, current list size is 98
02:39:36 Thread#1: captured node with data 86.179275
02:39:36 Thread#1: node processed, current list size is 97
02:39:36 Thread#1: captured node with data 50.720798
02:39:36 Thread#1: node processed, current list size is 96
02:39:36 Thread#1: captured node with data 73.953001
02:39:36 Thread#1: node processed, current list size is 95
02:39:36 Thread#1: captured node with data 67.586432
02:39:36 Thread#1: node processed, current list size is 94
02:39:36 Thread#2: starts processing...
02:39:36 Thread#2: running with mode 0...
02:39:36 Thread#2: current list size is 93
02:39:36 Thread#2: captured node with data 71.072642
02:39:36 Thread#2: node processed, current list size is 93
02:39:36 Thread#2: captured node with data 90.980928
02:39:36 Thread#2: node processed, current list size is 92
02:39:36 Thread#2: captured node with data 98.087134
02:39:36 Thread#2: node processed, current list size is 91
02:39:36 Thread#2: captured node with data 85.794618
02:39:36 Thread#2: node processed, current list size is 90
02:39:36 Thread#2: captured node with data 50.570336
02:39:36 Thread#2: node processed, current list size is 89
02:39:36 Thread#2: captured node with data 88.819317
02:39:36 Thread#2: node processed, current list size is 88
02:39:36 Thread#2: captured node with data 74.090203
02:39:36 Thread#2: node processed, current list size is 87
02:39:36 Thread#2: captured node with data 80.771728
02:39:36 Thread#2: node processed, current list size is 86
02:39:36 Thread#2: captured node with data 86.836186
02:39:36 Thread#2: node processed, current list size is 85
02:39:36 Thread#2: captured node with data 68.372963
02:39:36 Thread#2: node processed, current list size is 84
02:39:36 Thread#2: captured node with data 57.632102
02:39:36 Thread#2: node processed, current list size is 83
02:39:36 Thread#2: captured node with data 91.416945
02:39:36 Thread#2: node processed, current list size is 82
02:39:36 Thread#2: captured node with data 82.463624
02:39:36 Thread#2: node processed, current list size is 81
02:39:36 Thread#2: captured node with data 77.303873
02:39:36 Thread#2: node processed, current list size is 80
02:39:36 Thread#2: captured node with data 88.735236
02:39:36 Thread#2: node processed, current list size is 79
02:39:36 Thread#2: captured node with data 62.755363
02:39:36 Thread#2: node processed, current list size is 78
02:39:36 Thread#2: captured node with data 73.633885
02:39:36 Thread#2: node processed, current list size is 77
02:39:36 Thread#2: captured node with data 79.011616
02:39:36 Thread#2: node processed, current list size is 76
02:39:36 Thread#2: captured node with data 92.635411
02:39:36 Thread#2: node processed, current list size is 75
02:39:36 Thread#2: captured node with data 69.785988
02:39:36 Thread#2: node processed, current list size is 74
02:39:36 Thread#2: captured node with data 78.245675
02:39:36 Thread#2: node processed, current list size is 73
02:39:36 Thread#2: captured node with data 53.907754
02:39:36 Thread#2: node processed, current list size is 72
02:39:36 Thread#2: captured node with data 95.343281
02:39:36 Thread#2: node processed, current list size is 71
02:39:36 Thread#2: captured node with data 79.030106
02:39:36 Thread#2: node processed, current list size is 70
02:39:36 Thread#2: captured node with data 53.417157
02:39:36 Thread#2: node processed, current list size is 69
02:39:36 Thread#2: captured node with data 70.789859
02:39:36 Thread#2: node processed, current list size is 68
02:39:36 Thread#2: captured node with data 81.043532
02:39:36 Thread#2: node processed, current list size is 67
02:39:36 Thread#2: captured node with data 82.558240
02:39:36 Thread#2: node processed, current list size is 66
02:39:36 Thread#2: captured node with data 70.117700
02:39:36 Thread#2: node processed, current list size is 65
02:39:36 Thread#2: captured node with data 99.896470
02:39:36 Thread#2: node processed, current list size is 64
02:39:36 Thread#2: captured node with data 57.144628
02:39:36 Thread#2: node processed, current list size is 63
02:39:36 Thread#2: captured node with data 85.278023
02:39:36 Thread#2: node processed, current list size is 62
02:39:36 Thread#2: captured node with data 90.410592
02:39:36 Thread#2: node processed, current list size is 61
02:39:36 Thread#2: captured node with data 59.267817
02:39:36 Thread#2: node processed, current list size is 60
02:39:36 Thread#2: captured node with data 61.704415
02:39:36 Thread#2: node processed, current list size is 59
02:39:36 Thread#2: captured node with data 69.798608
02:39:36 Thread#2: node processed, current list size is 58
02:39:36 Thread#2: captured node with data 51.983131
02:39:36 Thread#2: node processed, current list size is 57
02:39:36 Thread#2: captured node with data 55.717240
02:39:36 Thread#2: node processed, current list size is 56
02:39:36 Thread#2: captured node with data 73.139626
02:39:36 Thread#2: node processed, current list size is 55
02:39:36 Thread#2: captured node with data 95.419241
02:39:36 Thread#2: node processed, current list size is 54
02:39:36 Thread#2: captured node with data 85.909339
02:39:36 Thread#2: node processed, current list size is 53
02:39:36 Thread#2: captured node with data 80.328229
02:39:36 Thread#2: node processed, current list size is 52
02:39:36 Thread#2: captured node with data 52.681709
02:39:36 Thread#2: node processed, current list size is 51
02:39:36 Thread#2: captured node with data 69.708261
02:39:36 Thread#2: node processed, current list size is 50
02:39:36 Thread#2: captured node with data 53.669988
02:39:36 Thread#2: node processed, current list size is 49
02:39:36 Thread#2: captured node with data 59.723620
02:39:36 Thread#2: node processed, current list size is 48
02:39:36 Thread#2: captured node with data 70.119951
02:39:36 Thread#2: node processed, current list size is 47
02:39:36 Thread#2: captured node with data 53.847898
02:39:36 Thread#2: node processed, current list size is 46
02:39:36 Thread#2: captured node with data 50.765941
02:39:36 Thread#2: node processed, current list size is 45
02:39:36 Thread#2: captured node with data 88.727658
02:39:36 Thread#2: node processed, current list size is 44
02:39:36 Thread#2: captured node with data 74.442707
02:39:36 Thread#2: node processed, current list size is 43
02:39:36 Thread#2: captured node with data 99.215569
02:39:36 Thread#2: node processed, current list size is 42
02:39:36 Thread#1: captured node with data 90.592123
02:39:36 Thread#1: node processed, current list size is 41
02:39:36 Thread#1: captured node with data 88.873894
02:39:36 Thread#1: node processed, current list size is 40
02:39:36 Thread#1: captured node with data 61.266069
02:39:36 Thread#1: node processed, current list size is 39
02:39:36 Thread#1: captured node with data 77.536802
02:39:36 Thread#1: node processed, current list size is 38
02:39:36 Thread#1: captured node with data 71.661183
02:39:36 Thread#1: node processed, current list size is 37
02:39:36 Thread#1: captured node with data 65.832481
02:39:36 Thread#1: node processed, current list size is 36
02:39:36 Thread#1: captured node with data 95.445304
02:39:36 Thread#1: node processed, current list size is 35
02:39:36 Thread#1: captured node with data 66.839513
02:39:36 Thread#1: node processed, current list size is 34
02:39:36 Thread#1: captured node with data 73.881264
02:39:36 Thread#1: node processed, current list size is 33
02:39:36 Thread#1: captured node with data 79.631681
02:39:36 Thread#1: node processed, current list size is 32
02:39:36 Thread#1: captured node with data 51.228994
02:39:36 Thread#1: node processed, current list size is 31
02:39:36 Thread#1: captured node with data 99.889284
02:39:36 Thread#1: node processed, current list size is 30
02:39:36 Thread#2: captured node with data 50.490597
02:39:36 Thread#2: node processed, current list size is 29
02:39:36 Thread#2: captured node with data 74.553422
02:39:36 Thread#2: node processed, current list size is 28
02:39:36 Thread#2: captured node with data 97.986575
02:39:36 Thread#2: node processed, current list size is 27
02:39:36 Thread#2: captured node with data 70.858916
02:39:36 Thread#2: node processed, current list size is 26
02:39:36 Thread#2: captured node with data 50.672158
02:39:36 Thread#2: node processed, current list size is 25
02:39:36 Thread#2: captured node with data 81.147061
02:39:36 Thread#2: node processed, current list size is 24
02:39:36 Thread#2: captured node with data 75.413613
02:39:36 Thread#1: captured node with data 88.237061
02:39:36 Thread#1: node processed, current list size is 23
02:39:36 Thread#1: captured node with data 51.550372
02:39:36 Thread#1: node processed, current list size is 22
02:39:36 Thread#1: captured node with data 79.405191
02:39:36 Thread#1: node processed, current list size is 21
02:39:36 Thread#1: captured node with data 81.392294
02:39:36 Thread#1: node processed, current list size is 20
02:39:36 Thread#1: captured node with data 58.957679
02:39:36 Thread#1: node processed, current list size is 19
02:39:36 Thread#1: captured node with data 99.822091
02:39:36 Thread#1: node processed, current list size is 18
02:39:36 Thread#1: captured node with data 99.588310
02:39:36 Thread#1: node processed, current list size is 17
02:39:36 Thread#1: captured node with data 92.958089
02:39:36 Thread#1: node processed, current list size is 16
02:39:36 Thread#1: captured node with data 76.658240
02:39:36 Thread#1: node processed, current list size is 15
02:39:36 Thread#1: captured node with data 66.201078
02:39:36 Thread#1: node processed, current list size is 14
02:39:36 Thread#1: captured node with data 92.737532
02:39:36 Thread#1: node processed, current list size is 13
02:39:36 Thread#1: captured node with data 92.811397
02:39:36 Thread#1: node processed, current list size is 12
02:39:36 Thread#1: captured node with data 69.807900
02:39:36 Thread#1: node processed, current list size is 11
02:39:36 Thread#1: captured node with data 56.563889
02:39:36 Thread#1: node processed, current list size is 10
02:39:36 Thread#1: captured node with data 96.658983
02:39:36 Thread#1: node processed, current list size is 9
02:39:36 Thread#1: captured node with data 55.987176
02:39:36 Thread#1: node processed, current list size is 8
02:39:36 Thread#1: captured node with data 57.284687
02:39:36 Thread#1: node processed, current list size is 7
02:39:36 Thread#1: captured node with data 70.611984
02:39:36 Thread#1: node processed, current list size is 6
02:39:36 Thread#1: captured node with data 73.573608
02:39:36 Thread#1: node processed, current list size is 5
02:39:36 Thread#1: captured node with data 97.876810
02:39:36 Thread#1: node processed, current list size is 4
02:39:36 Thread#1: captured node with data 59.485878
02:39:36 Thread#1: node processed, current list size is 3
02:39:36 Thread#1: captured node with data 84.839677
02:39:36 Thread#1: node processed, current list size is 2
02:39:36 Thread#1: node is already processed, processing ended.
02:39:36 Thread#2: node processed, current list size is 23
02:39:36 Thread#2: list is empty, processing ended.

	[END THREADS LOG]

